{
  "homeInfo": {
    "title": "首页",
    "href": "/index.jsp"
  },
  "logoInfo": {
    "title": "家庭理财系统",
    "image": "statics/layui/images/logo.png",
    "href": ""
  },
  "menuInfo": [
    {
      "title": "收入管理",
      "icon": "fa fa-wallet",
      "href": "",
      "target": "_self",
      "child": [
        {
          "title": "收入列表",
          "href": "/user/incomeTable.jsp",
          "icon": "fa fa-list-alt",
          "target": "_self"
        },
        {
          "title": "我的收入",
          "href": "/user/my-income.jsp",
          "icon": "fa fa-wallet",
          "target": "_self"
        },
        {
          "title": "我的收入统计",
          "href": "/user/my-income-stats.jsp",
          "icon": "fa fa-pie-chart",
          "target": "_self"
        }
      ]
    },
    {
      "title": "支出管理",
      "icon": "fas fa-hand-holding-usd",
      "href": "",
      "target": "_self",
      "child": [
        {
          "title": "支出列表",
          "href": "/user/expenseTable.jsp",
          "icon": "fa fa-list-alt",
          "target": "_self"
        },
        {
          "title": "我的支出",
          "href": "/user/my-expense.jsp",
          "icon": "fas fa-hand-holding-usd",
          "target": "_self"
        },
        {
          "title": "我的支出统计",
          "href": "/user/my-expense-stats.jsp",
          "icon": "fa fa-pie-chart",
          "target": "_self"
        }
      ]
    },
    {
      "title": "统计",
      "href": "/user/stats.jsp",
      "icon": "fa fa-pie-chart",
      "target": "_self"
    },
    {
      "title": "日志",
      "href": "/user/log_list.jsp",
      "icon": "fa fad fa-blog",
      "target": "_self"
    }
  ]
}